0.160091306	-0.781154474	-0.404656162
-0.767131971	0.76330278	0.151128879
0.452597839	0.636013838	0.562647439
-0.597470491	0.994236063	0.357553441
0.533100808	-0.572925741	-0.130515121
-0.183676332	-0.369691921	-0.295285685
-0.492247975	0.909082161	0.348550106
0.804913746	-0.860138755	-0.194117755
0.677859168	0.185441104	0.382408329
-0.325815147	0.968830209	0.450972067
-0.725394258	0.803291481	0.191817186
0.728976632	0.717045257	0.721817807
0.224147824	0.633975815	0.470044618
-0.829115947	-0.571921113	-0.674799046
-0.045813177	0.997093792	0.579931005
0.506100187	0.741948765	0.647609334
0.005705328	0.471150289	0.284972305
-0.318398129	0.573822131	0.216934027
0.409823846	0.453033406	0.435749582
0.519052178	-0.790524327	-0.266693725
0.963601396	-0.412784631	0.13776978
0.872873998	-0.551103479	0.018487512
0.352614806	-0.264885973	-0.017885662
0.139057594	0.390376789	0.289849111
-0.451347254	0.955243587	0.392607251
0.226409039	-0.700703859	-0.329858699
-0.687583152	0.671949536	0.128136461
0.675101705	-0.649482995	-0.119649115
0.819963922	-0.418546302	0.076857788
-0.35873467	-0.628458845	-0.520569175
0.420641373	0.380319853	0.396448461
-0.894339533	-0.222176512	-0.49104172
-0.153410382	0.56747814	0.279122731
0.198604349	-0.101618554	0.018470607
-0.598406415	0.723188115	0.194550303
0.991481609	-0.385800218	0.165112513
-0.535690946	0.45096403	0.05630204
0.002215476	-0.056592625	-0.033069384
0.96319118	0.411065884	0.631916003
0.892782169	0.500820178	0.657604975
-0.598096013	-0.670799018	-0.641717816
0.376569514	-0.508674327	-0.15457679
-0.129871752	0.083759109	-0.001693235
0.346329873	-0.840913564	-0.366016189
-0.654479042	0.097534491	-0.203270922
0.616374027	-0.768685536	-0.214661711
-0.989814397	-0.91293157	-0.943684701
0.117209591	-0.336877931	-0.155242922
-0.942929909	0.185042671	-0.266146361
-0.373379749	-0.273060465	-0.313188179
-0.267823948	-0.738247644	-0.550078166
0.230952644	-0.250054744	-0.057651789
-0.341557322	0.513661857	0.171574186
-0.301415376	-0.041328038	-0.145362973
0.029752985	-0.12834303	-0.065104624
-0.815215737	-0.801854075	-0.80719874
-0.222170439	-0.934770576	-0.649730521
-0.236177064	0.405802724	0.149010809
0.913453052	0.495106936	0.662445382
0.083298017	-0.192651742	-0.082271838
-0.008532856	0.768737384	0.457829288
-0.507487049	0.517520647	0.107517569
-0.525915701	0.909842183	0.335539029
0.200424859	-0.701888581	-0.340963205
-0.064738276	-0.219161505	-0.157392214
-0.665989104	-0.492741067	-0.562040281
-0.185875648	0.611481444	0.292538608
0.812738229	0.129720161	0.402927388
0.986215082	-0.240373301	0.250262052
0.679262592	0.392613093	0.507272893
0.000952134	-0.059996246	-0.035616894
-0.841815512	0.932244644	0.222620582
-0.542812774	-0.34664651	-0.425113016
-0.289691914	-0.891390305	-0.650710949
-0.19506079	0.285694081	0.093392133
-0.122418986	0.381087579	0.179684953
-0.337880202	0.331935687	0.064009331
-0.730629054	-0.17167109	-0.395254276
-0.785508992	0.304846252	-0.131295845
0.653957335	-0.567107101	-0.078681327
0.124806757	0.371903335	0.273064703
-0.161508711	0.06697246	-0.024420008
-0.041971482	0.122832092	0.056910663
-0.64841424	0.391284954	-0.024594724
-0.87171617	-0.036811652	-0.37077346
0.175396724	-0.630587483	-0.3081938
0.124226956	-0.940131272	-0.514387981
0.102920377	-0.602744647	-0.320478638
-0.978197034	-0.213436539	-0.519340737
0.277480436	-0.043346374	0.08498435
0.906375579	-0.826423728	-0.133304005
0.053301543	0.351818091	0.232411472
0.623510665	-0.444886635	-0.017527715
-0.314438982	0.34226752	0.079584919
-0.650629718	0.969011681	0.321155121
0.323082827	-0.495189756	-0.167880723
-0.782747203	-0.208047345	-0.437927288
-0.341561213	-0.529766052	-0.454484116
0.361043771	0.963904356	0.722760122
-0.233236157	0.082048016	-0.044065653
0.615234603	0.367833057	0.466793675
